/*******************************************************************************
/  Grade: 75/75 
/
/  *  
/  
/
/
/
/ 
/
/******************************************************************************/

